<?xml version="1.0" encoding="utf-8"?>
<!DOCTYPE svg PUBLIC "-//W3C//DTD SVG 1.1//EN" "http://www.w3.org/Graphics/SVG/1.1/DTD/svg11.dtd">
<svg version="1.1" xmlns="http://www.w3.org/2000/svg" xmlns:xlink="http://www.w3.org/1999/xlink" x="0px" y="0px" width="150px"
	 height="97.725px" viewBox="0 0 150 97.725" enable-background="new 0 0 150 97.725" xml:space="preserve">
<g id="Layer_2_copy">
	<g opacity="0.5">
		<path d="M122.332,29.94h-1.066c-1.092,0-1.883,0.812-1.883,1.93v9.096c-0.525-0.312-1.057-0.59-1.589-0.833
			c-1.213-0.548-2.695-0.826-4.408-0.826c-2.529,0-4.794,0.633-6.729,1.881c-1.926,1.243-3.433,3.017-4.479,5.277
			c-0.545,1.183-0.934,2.471-1.187,3.838v-8.599c0-0.216,0-0.876-0.567-1.454c-0.346-0.316-0.788-0.477-1.315-0.477h-1.019
			c-0.675,0-1.102,0.271-1.383,0.542c-0.154,0.16-0.269,0.347-0.352,0.556c-0.084-0.194-0.191-0.378-0.343-0.532
			c-0.329-0.342-0.784-0.542-1.351-0.567h-0.785c-0.899,0-1.63,0.458-1.953,1.223l-5.17,17.661l-5.638-17.548
			c-0.302-0.823-1.039-1.333-1.928-1.333h-1.068c-0.89,0-1.602,0.496-1.867,1.319l-5.329,17.618l-5.38-17.599
			c-0.3-0.824-1.04-1.335-1.931-1.335h-1.062c-1.239,0-1.887,0.901-1.887,1.792v0.226l7.338,23.967
			c0.103,0.356,0.571,1.52,2.243,1.52h1.388c1.062,0,1.887-0.61,2.143-1.557l4.896-16.371l5.271,16.409
			c0.214,0.735,0.915,1.521,2.242,1.521h1.251c1.082,0,1.926-0.604,2.202-1.571l6.566-22.816v22.456
			c0,0.618,0.191,1.105,0.508,1.392c0.516,0.53,1.208,0.53,1.469,0.53h0.788c0.261,0,1.05,0,1.576-0.616
			c0.447-0.519,0.447-1.181,0.447-1.399v-7.628c0.261,1.381,0.663,2.648,1.236,3.771c1.07,2.088,2.558,3.687,4.418,4.75
			c1.838,1.059,3.917,1.594,6.182,1.594c2.145,0,3.936-0.441,5.324-1.314c0.461-0.292,0.905-0.601,1.332-0.924
			c0.089,1.033,0.86,1.765,1.927,1.765h0.001h0.739c0.623,0,1.118-0.185,1.474-0.548c0.363-0.355,0.547-0.848,0.547-1.467V31.827
			C124.172,30.734,123.398,29.94,122.332,29.94z M119.387,57.945c0,0.655-0.26,1.355-0.788,2.135
			c-0.577,0.844-1.37,1.562-2.359,2.139c-0.95,0.558-2.022,0.841-3.183,0.841c-1.369,0-2.631-0.331-3.753-0.986
			c-1.121-0.654-2.003-1.631-2.694-2.982c-0.71-1.394-1.07-3.171-1.07-5.281c0-2.061,0.356-3.859,1.061-5.348
			c0.695-1.467,1.605-2.552,2.784-3.314c1.179-0.761,2.505-1.131,4.05-1.131c1.145,0,2.191,0.239,3.211,0.734
			c0.896,0.431,1.816,1.084,2.742,1.947V57.945z"/>
		<path d="M146.07,43.086c-2.188-2.499-5.172-3.766-8.872-3.766c-2.456,0-4.677,0.592-6.604,1.762
			c-1.938,1.184-3.466,2.894-4.536,5.082c-1.058,2.154-1.593,4.695-1.593,7.552c0,2.672,0.53,5.099,1.575,7.212
			c1.055,2.143,2.578,3.835,4.526,5.026c1.94,1.196,4.174,1.803,6.636,1.803c4.851,0,8.532-1.931,10.942-5.735
			c0.393-0.534,0.39-1.05,0.35-1.318c-0.071-0.483-0.351-0.911-0.802-1.213l-1.065-0.694c-0.84-0.552-1.955-0.307-2.572,0.658
			c-1.452,2.419-3.692,3.595-6.853,3.595c-1.434,0-2.71-0.364-3.902-1.117c-1.226-0.771-2.169-1.777-2.886-3.08
			c-0.566-1.031-0.908-2.137-1.019-3.344h17.818c1.06,0,1.552-0.569,1.732-0.877c0.225-0.364,0.335-0.783,0.335-1.284v-0.23
			C149.281,48.902,148.201,45.527,146.07,43.086z M137.152,44.011c1.479,0,2.771,0.333,3.842,0.987
			c1.092,0.672,1.909,1.565,2.498,2.736c0.488,0.955,0.781,2.019,0.874,3.175h-14.88c0.133-0.878,0.399-1.742,0.804-2.582
			c0.622-1.296,1.501-2.322,2.682-3.135C134.133,44.398,135.5,44.011,137.152,44.011z"/>
		<path d="M46.822,69.128c-2.438,0-4.66,0.597-6.605,1.774c-1.923,1.168-3.451,2.874-4.545,5.078
			c-0.078,0.159-0.132,0.335-0.204,0.498l1.336-4.641c0.149-0.606-0.012-1.231-0.433-1.67l-0.083-0.08
			c-0.353-0.315-0.792-0.48-1.279-0.48h-0.79c-0.905,0-1.636,0.458-1.955,1.227l-5.17,17.665l-5.64-17.588
			c-0.313-0.806-1.052-1.306-1.928-1.306h-1.063c-0.873,0-1.583,0.483-1.87,1.319l-5.327,17.618L5.883,70.928
			c-0.305-0.815-1.044-1.322-1.93-1.322H2.891c-1.236,0-1.883,0.9-1.883,1.789v0.221l7.336,23.976
			c0.282,0.953,1.12,1.522,2.241,1.522h1.388c1.05,0,1.876-0.603,2.151-1.557l4.895-16.379l5.266,16.411
			c0.282,0.955,1.12,1.524,2.243,1.524h1.255c1.085,0,1.928-0.606,2.197-1.57l4.372-15.186c-0.162,1.014-0.268,2.065-0.268,3.179
			c0,2.697,0.53,5.127,1.571,7.214c1.056,2.139,2.579,3.829,4.526,5.023c1.943,1.196,4.177,1.804,6.641,1.804
			c4.846,0,8.525-1.929,10.936-5.731c0.299-0.402,0.424-0.874,0.352-1.338c-0.077-0.494-0.367-0.924-0.797-1.196l-1.076-0.703
			c-0.298-0.191-0.634-0.292-0.973-0.292c-0.299,0-1.05,0.092-1.587,0.959c-1.454,2.418-3.696,3.595-6.853,3.595
			c-1.445,0-2.719-0.364-3.902-1.114c-1.225-0.771-2.168-1.779-2.886-3.085c-0.579-1.049-0.918-2.135-1.026-3.341h17.821
			c0.989,0,1.491-0.519,1.733-0.875c0.228-0.363,0.338-0.783,0.338-1.289V82.93c0-4.211-1.081-7.584-3.213-10.028
			C53.501,70.399,50.518,69.128,46.822,69.128z M42.587,75.016c1.172-0.796,2.54-1.183,4.184-1.183c1.506,0,2.764,0.324,3.852,0.994
			c1.087,0.662,1.901,1.554,2.492,2.73c0.487,0.957,0.778,2.022,0.871,3.18H39.107c0.133-0.876,0.402-1.74,0.806-2.582
			C40.529,76.871,41.432,75.813,42.587,75.016z"/>
		<path d="M70.831,69.145c-2.3,0-4.188,0.395-5.623,1.179c-0.532,0.294-1.025,0.591-1.483,0.893v-9.461
			c0-1.299-0.926-1.977-1.84-1.977h-1.067c-1.09,0-1.882,0.812-1.882,1.93v33.334c0,0.553,0.146,1.016,0.433,1.377l0.066,0.077
			c0.004,0.004,0.007,0.008,0.011,0.013v0.604h1.976c0.407,0,1.004-0.049,1.438-0.412c0.395-0.296,0.629-0.725,0.699-1.242
			c0.321,0.239,0.67,0.477,1.047,0.715c1.48,0.93,3.405,1.401,5.719,1.401c3.76,0,6.754-1.335,8.896-3.964
			c2.083-2.546,3.141-6.025,3.141-10.341c0-4-0.933-7.351-2.775-9.961C77.633,70.546,74.687,69.145,70.831,69.145z M63.725,76.95
			c0.795-0.877,1.731-1.589,2.842-2.166c1.229-0.631,2.555-0.951,3.941-0.951c2.217,0,3.864,0.764,5.035,2.336
			c1.251,1.679,1.886,4.064,1.886,7.094c0,3.237-0.706,5.689-2.102,7.292c-1.352,1.562-3.05,2.322-5.191,2.322
			c-1.073,0-2.089-0.255-3.11-0.786c-0.997-0.512-1.816-1.216-2.437-2.096c-0.582-0.816-0.864-1.654-0.864-2.562V76.95z"/>
		<path d="M21.243,37.291h1.389c1.061,0,1.886-0.609,2.143-1.557l4.897-16.375l5.274,16.424c0.285,0.945,1.122,1.509,2.239,1.509
			h1.251c1.094,0,1.938-0.61,2.199-1.571l4.395-15.257c-0.179,1.029-0.291,2.094-0.291,3.212c0,2.68,0.519,5.104,1.542,7.207
			c1.046,2.138,2.552,3.836,4.48,5.05c1.93,1.208,4.188,1.821,6.71,1.823h0.001c2.489,0,4.731-0.612,6.667-1.823
			c1.927-1.212,3.44-2.927,4.501-5.097c0.434-0.889,0.757-1.844,1.011-2.838c0.252,1.015,0.579,1.986,1.018,2.884
			c1.047,2.142,2.554,3.841,4.479,5.049c1.924,1.209,4.182,1.823,6.71,1.825h0.001c2.493,0,4.735-0.613,6.669-1.823
			c1.921-1.208,3.436-2.922,4.501-5.096c0.386-0.79,0.677-1.637,0.922-2.511c0.262,1.116,0.618,2.154,1.097,3.088
			c1.071,2.085,2.559,3.685,4.426,4.754c1.84,1.05,3.918,1.582,6.176,1.582c2.156,0,3.948-0.442,5.325-1.314
			c0.46-0.29,0.903-0.597,1.328-0.92c0.091,1.036,0.871,1.77,1.926,1.773h0.745c0.629,0,1.129-0.19,1.443-0.518
			c0.384-0.362,0.577-0.868,0.577-1.502V1.839c0-1.092-0.775-1.885-1.844-1.885h-1.066c-1.092,0-1.883,0.812-1.883,1.93v9.094
			c-0.526-0.312-1.058-0.591-1.593-0.834c-1.212-0.547-2.694-0.824-4.403-0.824c-2.535,0-4.799,0.634-6.729,1.882
			c-1.931,1.246-3.437,3.02-4.479,5.277c-0.397,0.865-0.694,1.793-0.937,2.752c-0.256-1.021-0.586-2.001-1.029-2.916
			c-1.062-2.19-2.574-3.92-4.497-5.141c-1.931-1.229-4.162-1.851-6.63-1.851c-2.491,0-4.744,0.63-6.704,1.876
			c-1.938,1.245-3.456,2.982-4.511,5.165c-0.436,0.903-0.76,1.873-1.014,2.88c-0.255-1.026-0.586-2.011-1.032-2.927
			c-1.057-2.187-2.57-3.918-4.499-5.143c-1.932-1.228-4.162-1.851-6.626-1.851c-2.498,0-4.753,0.63-6.707,1.876
			c-1.939,1.244-3.457,2.982-4.511,5.164c-0.118,0.244-0.205,0.505-0.31,0.756l1.466-5.088c0.155-0.607,0.004-1.213-0.472-1.722
			c-0.345-0.331-0.806-0.518-1.318-0.525h-0.789c-0.892,0-1.621,0.451-1.95,1.208l-5.177,17.68l-5.637-17.563
			c-0.303-0.816-1.044-1.323-1.932-1.323H29.12c-0.886,0-1.599,0.493-1.869,1.318l-5.328,17.613L16.547,11.13
			c-0.294-0.83-1.036-1.345-1.936-1.345h-1.063c-1.238,0-1.886,0.902-1.886,1.792v0.228l7.335,23.958
			C19.101,36.122,19.567,37.291,21.243,37.291z M49.625,23.583c0-1.945,0.345-3.671,1.026-5.134c0.65-1.409,1.572-2.514,2.747-3.287
			c1.163-0.772,2.513-1.148,4.127-1.148c1.571,0,2.906,0.376,4.081,1.149c1.189,0.787,2.078,1.853,2.72,3.262
			c0.665,1.446,1.002,3.182,1.002,5.158c0,2.941-0.72,5.302-2.138,7.012c-1.379,1.655-3.214,2.46-5.618,2.46
			c-1.614,0-2.978-0.371-4.17-1.136c-1.197-0.767-2.097-1.823-2.754-3.235C49.969,27.242,49.625,25.526,49.625,23.583z
			 M81.903,14.015c1.575,0,2.912,0.376,4.085,1.15c1.188,0.784,2.077,1.85,2.721,3.255c0.661,1.454,0.997,3.191,0.997,5.164
			c0,2.948-0.719,5.308-2.134,7.014c-1.373,1.654-3.21,2.458-5.628,2.458c-1.61,0-2.971-0.371-4.163-1.137
			c-1.193-0.762-2.095-1.818-2.754-3.228c-0.678-1.461-1.022-3.18-1.022-5.108c0-1.931,0.345-3.658,1.023-5.131
			c0.666-1.434,1.562-2.509,2.747-3.289C78.941,14.39,80.292,14.015,81.903,14.015z M112.204,27.945
			c0,0.658-0.264,1.376-0.786,2.137c-0.573,0.838-1.365,1.558-2.353,2.136c-0.974,0.568-2.015,0.845-3.186,0.845
			c-1.366,0-2.63-0.332-3.758-0.987c-1.116-0.649-1.999-1.626-2.694-2.985c-0.708-1.392-1.065-3.167-1.065-5.271
			c0-2.061,0.355-3.864,1.057-5.353c0.698-1.47,1.612-2.557,2.793-3.324c1.167-0.759,2.491-1.127,4.049-1.127
			c1.138,0,2.186,0.239,3.197,0.73c0.91,0.444,1.832,1.099,2.746,1.951V27.945z"/>
	</g>
</g>
<g id="Layer_2">
	<g>
		<path fill="#FFFFFF" d="M94.962,41.362c0.082,0.077,0.101,0.179,0.074,0.302l-6.808,23.645c-0.096,0.336-0.362,0.509-0.793,0.509
			h-1.251c-0.459,0-0.745-0.156-0.835-0.464l-6.491-20.212c-0.094-0.25-0.166-0.375-0.229-0.375c-0.062,0-0.139,0.125-0.231,0.375
			l-6.027,20.165c-0.091,0.338-0.339,0.509-0.738,0.509h-1.388c-0.466,0-0.746-0.156-0.834-0.462l-7.236-23.646l-0.044-0.137
			c0-0.216,0.137-0.326,0.421-0.326h1.062c0.278,0,0.463,0.126,0.553,0.371l6.447,21.095c0.091,0.306,0.202,0.462,0.325,0.462
			c0.118,0,0.228-0.172,0.323-0.509l6.396-21.146c0.06-0.183,0.216-0.277,0.464-0.277h1.068c0.273,0,0.461,0.126,0.55,0.369
			l6.775,21.092c0.09,0.308,0.188,0.465,0.272,0.465c0.121,0,0.235-0.173,0.327-0.51l6.163-21.094
			c0.092-0.217,0.291-0.326,0.601-0.326h0.785C94.789,41.245,94.893,41.285,94.962,41.362"/>
		<path fill="#FFFFFF" d="M99.525,65.26c0,0.223-0.029,0.369-0.091,0.44c-0.066,0.078-0.218,0.108-0.466,0.108h-0.788
			c-0.215,0-0.354-0.021-0.417-0.086c-0.066-0.062-0.094-0.188-0.094-0.369V41.705c0-0.186,0.031-0.306,0.094-0.371
			c0.063-0.061,0.173-0.093,0.327-0.093h1.019c0.158,0,0.259,0.031,0.325,0.093c0.063,0.064,0.091,0.184,0.091,0.371V65.26
			L99.525,65.26z"/>
		<path fill="#FFFFFF" d="M117.279,43.427c-1.204-0.585-2.481-0.878-3.846-0.878c-1.822,0-3.432,0.454-4.846,1.365
			c-1.408,0.913-2.509,2.221-3.313,3.92c-0.804,1.698-1.203,3.694-1.203,5.975c0,2.354,0.407,4.331,1.232,5.947
			c0.815,1.599,1.905,2.793,3.262,3.584c1.357,0.792,2.86,1.186,4.491,1.186c1.424,0,2.737-0.346,3.925-1.044
			c1.188-0.689,2.129-1.553,2.828-2.572c0.696-1.029,1.043-2.007,1.043-2.965V46.073C119.676,44.897,118.488,44.008,117.279,43.427
			 M120.942,65.309v-2.37c0-0.274-0.064-0.415-0.183-0.415c-0.091,0-0.221,0.078-0.377,0.235c-0.865,0.894-1.865,1.71-3.014,2.432
			c-1.146,0.721-2.656,1.09-4.541,1.09c-2.007,0-3.827-0.465-5.45-1.398c-1.616-0.924-2.903-2.312-3.845-4.147
			c-0.94-1.844-1.412-4.087-1.412-6.747c0-2.595,0.464-4.899,1.391-6.908c0.929-2.008,2.242-3.563,3.94-4.66
			c1.699-1.096,3.674-1.646,5.934-1.646c1.515,0,2.781,0.233,3.805,0.695c1.02,0.465,2.023,1.068,3.014,1.81
			c0.245,0.187,0.399,0.278,0.463,0.278c0.117,0,0.182-0.203,0.182-0.604V31.87c0-0.305,0.144-0.463,0.417-0.463h1.066
			c0.248,0,0.373,0.142,0.373,0.42v33.432c0,0.212-0.038,0.359-0.118,0.43c-0.075,0.086-0.22,0.118-0.436,0.118h-0.739
			C121.096,65.818,120.942,65.653,120.942,65.309"/>
		<path fill="#FFFFFF" d="M145.083,52.373c0.303,0,0.515-0.047,0.623-0.141c0.104-0.093,0.159-0.261,0.159-0.509
			c0-1.698-0.351-3.258-1.065-4.657c-0.709-1.406-1.724-2.51-3.037-3.318c-1.309-0.8-2.846-1.205-4.61-1.205
			c-1.946,0-3.611,0.481-5.009,1.438c-1.394,0.958-2.448,2.196-3.176,3.71c-0.728,1.514-1.072,3.077-1.039,4.682h17.154V52.373z
			 M129.13,59.559c0.836,1.521,1.967,2.721,3.39,3.614c1.419,0.896,2.975,1.343,4.683,1.343c3.675,0,6.382-1.428,8.11-4.307
			c0.155-0.242,0.329-0.306,0.51-0.187l1.069,0.697c0.188,0.125,0.204,0.273,0.049,0.464c-2.134,3.402-5.376,5.105-9.738,5.105
			c-2.196,0-4.15-0.526-5.866-1.584c-1.719-1.053-3.045-2.526-3.98-4.426c-0.941-1.903-1.425-4.092-1.425-6.563
			c0-2.656,0.487-4.958,1.443-6.906c0.952-1.945,2.282-3.438,3.984-4.475c1.697-1.031,3.645-1.548,5.84-1.548
			c3.271,0,5.863,1.087,7.769,3.265c1.902,2.18,2.849,5.206,2.849,9.065v0.23c0,0.217-0.037,0.384-0.115,0.51
			c-0.073,0.125-0.239,0.184-0.486,0.184h-19.051c-0.189,0-0.275,0.216-0.275,0.651C127.884,56.42,128.297,58.045,129.13,59.559"/>
		<path fill="#FFFFFF" d="M94.962,41.362c0.082,0.077,0.101,0.179,0.074,0.302l-6.808,23.645c-0.096,0.336-0.362,0.509-0.793,0.509
			h-1.251c-0.459,0-0.745-0.156-0.835-0.464l-6.491-20.212c-0.094-0.25-0.166-0.375-0.229-0.375c-0.062,0-0.139,0.125-0.231,0.375
			l-6.027,20.165c-0.091,0.338-0.339,0.509-0.738,0.509h-1.388c-0.466,0-0.746-0.156-0.834-0.462l-7.236-23.646l-0.044-0.137
			c0-0.216,0.137-0.326,0.421-0.326h1.062c0.278,0,0.463,0.126,0.553,0.371l6.447,21.095c0.091,0.306,0.202,0.462,0.325,0.462
			c0.118,0,0.228-0.172,0.323-0.509l6.396-21.146c0.06-0.183,0.216-0.277,0.464-0.277h1.068c0.273,0,0.461,0.126,0.55,0.369
			l6.775,21.092c0.09,0.308,0.188,0.465,0.272,0.465c0.121,0,0.235-0.173,0.327-0.51l6.163-21.094
			c0.092-0.217,0.291-0.326,0.601-0.326h0.785C94.789,41.245,94.893,41.285,94.962,41.362"/>
		<path fill="#FFFFFF" d="M99.525,65.26c0,0.223-0.029,0.369-0.091,0.44c-0.066,0.078-0.218,0.108-0.466,0.108h-0.788
			c-0.215,0-0.354-0.021-0.417-0.086c-0.066-0.062-0.094-0.188-0.094-0.369V41.705c0-0.186,0.031-0.306,0.094-0.371
			c0.063-0.061,0.173-0.093,0.327-0.093h1.019c0.158,0,0.259,0.031,0.325,0.093c0.063,0.064,0.091,0.184,0.091,0.371V65.26
			L99.525,65.26z"/>
		<path fill="#FFFFFF" d="M117.279,43.427c-1.204-0.585-2.481-0.878-3.846-0.878c-1.822,0-3.432,0.454-4.846,1.365
			c-1.408,0.913-2.509,2.221-3.313,3.92c-0.804,1.698-1.203,3.694-1.203,5.975c0,2.354,0.407,4.331,1.232,5.947
			c0.815,1.599,1.905,2.793,3.262,3.584c1.357,0.792,2.86,1.186,4.491,1.186c1.424,0,2.737-0.346,3.925-1.044
			c1.188-0.689,2.129-1.553,2.828-2.572c0.696-1.029,1.043-2.007,1.043-2.965V46.073C119.676,44.897,118.488,44.008,117.279,43.427
			 M120.942,65.309v-2.37c0-0.274-0.064-0.415-0.183-0.415c-0.091,0-0.221,0.078-0.377,0.235c-0.865,0.894-1.865,1.71-3.014,2.432
			c-1.146,0.721-2.656,1.09-4.541,1.09c-2.007,0-3.827-0.465-5.45-1.398c-1.616-0.924-2.903-2.312-3.845-4.147
			c-0.94-1.844-1.412-4.087-1.412-6.747c0-2.595,0.464-4.899,1.391-6.908c0.929-2.008,2.242-3.563,3.94-4.66
			c1.699-1.096,3.674-1.646,5.934-1.646c1.515,0,2.781,0.233,3.805,0.695c1.02,0.465,2.023,1.068,3.014,1.81
			c0.245,0.187,0.399,0.278,0.463,0.278c0.117,0,0.182-0.203,0.182-0.604V31.87c0-0.305,0.144-0.463,0.417-0.463h1.066
			c0.248,0,0.373,0.142,0.373,0.42v33.432c0,0.212-0.038,0.359-0.118,0.43c-0.075,0.086-0.22,0.118-0.436,0.118h-0.739
			C121.096,65.818,120.942,65.653,120.942,65.309"/>
		<path fill="#FFFFFF" d="M145.083,52.373c0.303,0,0.515-0.047,0.623-0.141c0.104-0.093,0.159-0.261,0.159-0.509
			c0-1.698-0.351-3.258-1.065-4.657c-0.709-1.406-1.724-2.51-3.037-3.318c-1.309-0.8-2.846-1.205-4.61-1.205
			c-1.946,0-3.611,0.481-5.009,1.438c-1.394,0.958-2.448,2.196-3.176,3.71c-0.728,1.514-1.072,3.077-1.039,4.682h17.154V52.373z
			 M129.13,59.559c0.836,1.521,1.967,2.721,3.39,3.614c1.419,0.896,2.975,1.343,4.683,1.343c3.675,0,6.382-1.428,8.11-4.307
			c0.155-0.242,0.329-0.306,0.51-0.187l1.069,0.697c0.188,0.125,0.204,0.273,0.049,0.464c-2.134,3.402-5.376,5.105-9.738,5.105
			c-2.196,0-4.15-0.526-5.866-1.584c-1.719-1.053-3.045-2.526-3.98-4.426c-0.941-1.903-1.425-4.092-1.425-6.563
			c0-2.656,0.487-4.958,1.443-6.906c0.952-1.945,2.282-3.438,3.984-4.475c1.697-1.031,3.645-1.548,5.84-1.548
			c3.271,0,5.863,1.087,7.769,3.265c1.902,2.18,2.849,5.206,2.849,9.065v0.23c0,0.217-0.037,0.384-0.115,0.51
			c-0.073,0.125-0.239,0.184-0.486,0.184h-19.051c-0.189,0-0.275,0.216-0.275,0.651C127.884,56.42,128.297,58.045,129.13,59.559"/>
		<path fill="#FFFFFF" d="M35.311,71.183c0.075,0.079,0.098,0.181,0.068,0.306L28.57,95.137c-0.095,0.339-0.361,0.51-0.788,0.51
			h-1.255c-0.46,0-0.743-0.158-0.835-0.472L19.208,74.97c-0.098-0.25-0.171-0.376-0.235-0.376c-0.062,0-0.142,0.126-0.231,0.376
			l-6.024,20.167c-0.098,0.339-0.341,0.51-0.746,0.51h-1.388c-0.466,0-0.742-0.158-0.835-0.472L2.518,71.534l-0.043-0.14
			c0-0.22,0.133-0.322,0.417-0.322h1.062c0.277,0,0.465,0.125,0.557,0.37l6.442,21.098c0.096,0.306,0.201,0.465,0.326,0.465
			c0.121,0,0.232-0.175,0.325-0.511l6.393-21.145c0.065-0.189,0.219-0.277,0.466-0.277h1.063c0.281,0,0.466,0.125,0.561,0.37
			l6.764,21.1c0.096,0.304,0.185,0.465,0.279,0.465c0.126,0,0.232-0.175,0.326-0.513l6.164-21.098
			c0.091-0.22,0.291-0.322,0.601-0.322h0.79C35.136,71.073,35.232,71.113,35.311,71.183"/>
		<path fill="#FFFFFF" d="M54.7,82.201c0.31,0,0.519-0.055,0.625-0.141c0.11-0.093,0.16-0.266,0.16-0.509
			c0-1.701-0.354-3.263-1.063-4.659c-0.709-1.411-1.722-2.518-3.036-3.318c-1.314-0.808-2.851-1.207-4.616-1.207
			c-1.945,0-3.611,0.487-5.008,1.437c-1.388,0.955-2.447,2.205-3.172,3.718c-0.726,1.513-1.075,3.074-1.044,4.682H54.7V82.201z
			 M38.75,89.379c0.835,1.521,1.965,2.722,3.389,3.618c1.418,0.9,2.975,1.339,4.683,1.339c3.678,0,6.379-1.427,8.109-4.306
			c0.156-0.25,0.326-0.307,0.51-0.188l1.066,0.697c0.188,0.117,0.204,0.275,0.046,0.464c-2.133,3.403-5.377,5.107-9.733,5.107
			c-2.201,0-4.153-0.528-5.872-1.587c-1.714-1.051-3.042-2.524-3.98-4.424c-0.946-1.896-1.419-4.085-1.419-6.564
			c0-2.65,0.483-4.955,1.439-6.91c0.961-1.938,2.287-3.437,3.988-4.47c1.7-1.029,3.644-1.562,5.844-1.562
			c3.27,0,5.863,1.098,7.76,3.271c1.902,2.181,2.851,5.199,2.851,9.063v0.236c0,0.22-0.036,0.386-0.113,0.51
			c-0.081,0.116-0.24,0.188-0.491,0.188H37.782c-0.192,0-0.282,0.213-0.282,0.65C37.5,86.248,37.915,87.865,38.75,89.379"/>
		<path fill="#FFFFFF" d="M62.258,87.434c0,1.21,0.377,2.347,1.137,3.412c0.753,1.067,1.741,1.923,2.96,2.55
			c1.224,0.636,2.483,0.948,3.781,0.948c2.565,0,4.666-0.94,6.301-2.83c1.64-1.884,2.46-4.627,2.46-8.251
			c0-3.365-0.727-6.024-2.178-7.97c-1.45-1.947-3.525-2.926-6.211-2.926c-1.639,0-3.176,0.376-4.612,1.113
			c-1.439,0.746-2.651,1.719-3.639,2.926V87.434L62.258,87.434z M60.913,95.639c-0.185,0-0.318-0.048-0.396-0.133
			c-0.076-0.096-0.114-0.251-0.114-0.464V61.708c0-0.314,0.141-0.464,0.415-0.464h1.067c0.248,0,0.374,0.173,0.374,0.511V73.49
			c0,0.305,0.059,0.455,0.184,0.455s0.263-0.078,0.416-0.236c0.835-0.738,1.859-1.435,3.062-2.104
			c1.203-0.656,2.844-0.993,4.911-0.993c3.369,0,5.889,1.185,7.558,3.545c1.671,2.369,2.505,5.402,2.505,9.114
			c0,3.984-0.934,7.121-2.809,9.412c-1.865,2.291-4.455,3.427-7.76,3.427c-2.04,0-3.688-0.392-4.939-1.179
			c-1.254-0.79-2.156-1.583-2.713-2.391c-0.091-0.147-0.188-0.226-0.278-0.226c-0.122,0-0.185,0.117-0.185,0.368l-0.094,2.369
			c0,0.243-0.043,0.407-0.137,0.478c-0.095,0.079-0.283,0.117-0.557,0.117h-0.509V95.639L60.913,95.639z"/>
		<path fill="#FFFFFF" d="M35.311,71.183c0.075,0.079,0.098,0.181,0.068,0.306L28.57,95.137c-0.095,0.339-0.361,0.51-0.788,0.51
			h-1.255c-0.46,0-0.743-0.158-0.835-0.472L19.208,74.97c-0.098-0.25-0.171-0.376-0.235-0.376c-0.062,0-0.142,0.126-0.231,0.376
			l-6.024,20.167c-0.098,0.339-0.341,0.51-0.746,0.51h-1.388c-0.466,0-0.742-0.158-0.835-0.472L2.518,71.534l-0.043-0.14
			c0-0.22,0.133-0.322,0.417-0.322h1.062c0.277,0,0.465,0.125,0.557,0.37l6.442,21.098c0.096,0.306,0.201,0.465,0.326,0.465
			c0.121,0,0.232-0.175,0.325-0.511l6.393-21.145c0.065-0.189,0.219-0.277,0.466-0.277h1.063c0.281,0,0.466,0.125,0.561,0.37
			l6.764,21.1c0.096,0.304,0.185,0.465,0.279,0.465c0.126,0,0.232-0.175,0.326-0.513l6.164-21.098
			c0.091-0.22,0.291-0.322,0.601-0.322h0.79C35.136,71.073,35.232,71.113,35.311,71.183"/>
		<path fill="#FFFFFF" d="M54.7,82.201c0.31,0,0.519-0.055,0.625-0.141c0.11-0.093,0.16-0.266,0.16-0.509
			c0-1.701-0.354-3.263-1.063-4.659c-0.709-1.411-1.722-2.518-3.036-3.318c-1.314-0.808-2.851-1.207-4.616-1.207
			c-1.945,0-3.611,0.487-5.008,1.437c-1.388,0.955-2.447,2.205-3.172,3.718c-0.726,1.513-1.075,3.074-1.044,4.682H54.7V82.201z
			 M38.75,89.379c0.835,1.521,1.965,2.722,3.389,3.618c1.418,0.9,2.975,1.339,4.683,1.339c3.678,0,6.379-1.427,8.109-4.306
			c0.156-0.25,0.326-0.307,0.51-0.188l1.066,0.697c0.188,0.117,0.204,0.275,0.046,0.464c-2.133,3.403-5.377,5.107-9.733,5.107
			c-2.201,0-4.153-0.528-5.872-1.587c-1.714-1.051-3.042-2.524-3.98-4.424c-0.946-1.896-1.419-4.085-1.419-6.564
			c0-2.65,0.483-4.955,1.439-6.91c0.961-1.938,2.287-3.437,3.988-4.47c1.7-1.029,3.644-1.562,5.844-1.562
			c3.27,0,5.863,1.098,7.76,3.271c1.902,2.181,2.851,5.199,2.851,9.063v0.236c0,0.22-0.036,0.386-0.113,0.51
			c-0.081,0.116-0.24,0.188-0.491,0.188H37.782c-0.192,0-0.282,0.213-0.282,0.65C37.5,86.248,37.915,87.865,38.75,89.379"/>
		<path fill="#FFFFFF" d="M62.258,87.434c0,1.21,0.377,2.347,1.137,3.412c0.753,1.067,1.741,1.923,2.96,2.55
			c1.224,0.636,2.483,0.948,3.781,0.948c2.565,0,4.666-0.94,6.301-2.83c1.64-1.884,2.46-4.627,2.46-8.251
			c0-3.365-0.727-6.024-2.178-7.97c-1.45-1.947-3.525-2.926-6.211-2.926c-1.639,0-3.176,0.376-4.612,1.113
			c-1.439,0.746-2.651,1.719-3.639,2.926V87.434L62.258,87.434z M60.913,95.639c-0.185,0-0.318-0.048-0.396-0.133
			c-0.076-0.096-0.114-0.251-0.114-0.464V61.708c0-0.314,0.141-0.464,0.415-0.464h1.067c0.248,0,0.374,0.173,0.374,0.511V73.49
			c0,0.305,0.059,0.455,0.184,0.455s0.263-0.078,0.416-0.236c0.835-0.738,1.859-1.435,3.062-2.104
			c1.203-0.656,2.844-0.993,4.911-0.993c3.369,0,5.889,1.185,7.558,3.545c1.671,2.369,2.505,5.402,2.505,9.114
			c0,3.984-0.934,7.121-2.809,9.412c-1.865,2.291-4.455,3.427-7.76,3.427c-2.04,0-3.688-0.392-4.939-1.179
			c-1.254-0.79-2.156-1.583-2.713-2.391c-0.091-0.147-0.188-0.226-0.278-0.226c-0.122,0-0.185,0.117-0.185,0.368l-0.094,2.369
			c0,0.243-0.043,0.407-0.137,0.478c-0.095,0.079-0.283,0.117-0.557,0.117h-0.509V95.639L60.913,95.639z"/>
		<path fill="#FFFFFF" d="M45.971,11.368c0.075,0.081,0.097,0.176,0.065,0.301l-6.812,23.645c-0.091,0.337-0.357,0.51-0.789,0.51
			h-1.251c-0.463,0-0.741-0.157-0.834-0.465l-6.49-20.213c-0.092-0.249-0.169-0.373-0.228-0.373c-0.067,0-0.141,0.124-0.236,0.373
			L23.37,35.314c-0.092,0.337-0.339,0.51-0.738,0.51h-1.389c-0.467,0-0.746-0.155-0.835-0.465l-7.235-23.646l-0.043-0.135
			c0-0.218,0.138-0.325,0.419-0.325h1.063c0.279,0,0.466,0.124,0.553,0.368l6.448,21.095c0.09,0.31,0.201,0.465,0.325,0.465
			c0.122,0,0.228-0.172,0.322-0.508l6.397-21.145c0.062-0.189,0.215-0.276,0.465-0.276h1.062c0.284,0,0.467,0.124,0.558,0.368
			l6.769,21.095c0.09,0.31,0.183,0.465,0.278,0.465c0.122,0,0.232-0.172,0.325-0.508l6.162-21.096
			c0.095-0.218,0.293-0.325,0.604-0.325h0.789C45.791,11.252,45.892,11.292,45.971,11.368"/>
		<path fill="#FFFFFF" d="M64.316,31.535c1.651-1.992,2.478-4.644,2.478-7.951c0-2.192-0.376-4.118-1.136-5.771
			c-0.753-1.655-1.839-2.943-3.244-3.872c-1.409-0.927-3.036-1.393-4.889-1.393c-1.887,0-3.534,0.46-4.938,1.393
			c-1.404,0.924-2.497,2.225-3.267,3.895c-0.777,1.667-1.162,3.583-1.162,5.748s0.385,4.072,1.162,5.726
			c0.77,1.655,1.867,2.936,3.291,3.847c1.422,0.912,3.074,1.367,4.961,1.367C60.411,34.525,62.657,33.528,64.316,31.535
			 M51.539,34.689c-1.698-1.069-3.011-2.552-3.94-4.452c-0.926-1.902-1.393-4.086-1.393-6.562c0-2.501,0.474-4.724,1.417-6.673
			c0.94-1.947,2.27-3.469,3.982-4.568c1.715-1.094,3.688-1.644,5.915-1.644c2.195,0,4.14,0.542,5.84,1.622
			c1.702,1.081,3.023,2.594,3.964,4.543c0.945,1.943,1.417,4.156,1.417,6.627c0,2.473-0.472,4.674-1.417,6.61
			c-0.941,1.927-2.262,3.429-3.964,4.499c-1.7,1.062-3.659,1.598-5.886,1.598C55.218,36.287,53.237,35.752,51.539,34.689"/>
		<path fill="#FFFFFF" d="M88.701,31.535c1.652-1.992,2.472-4.644,2.472-7.951c0-2.192-0.377-4.118-1.129-5.771
			c-0.758-1.655-1.841-2.943-3.247-3.872c-1.406-0.927-3.036-1.393-4.894-1.393c-1.883,0-3.53,0.46-4.939,1.393
			c-1.403,0.924-2.493,2.225-3.267,3.895c-0.768,1.667-1.16,3.583-1.16,5.748s0.392,4.072,1.16,5.726
			c0.774,1.655,1.867,2.936,3.296,3.847c1.419,0.912,3.07,1.367,4.951,1.367C84.796,34.525,87.048,33.528,88.701,31.535
			 M75.929,34.689c-1.703-1.069-3.012-2.552-3.94-4.452c-0.929-1.902-1.394-4.086-1.394-6.562c0-2.501,0.476-4.724,1.416-6.673
			c0.942-1.947,2.271-3.469,3.982-4.568c1.72-1.094,3.688-1.644,5.912-1.644c2.195,0,4.146,0.542,5.844,1.622
			c1.701,1.081,3.02,2.594,3.964,4.543c0.942,1.943,1.416,4.156,1.416,6.627c0,2.473-0.47,4.674-1.416,6.61
			c-0.944,1.927-2.263,3.429-3.964,4.499c-1.698,1.062-3.663,1.598-5.889,1.598C79.604,36.287,77.621,35.752,75.929,34.689"/>
		<path fill="#FFFFFF" d="M110.102,13.428c-1.207-0.585-2.485-0.879-3.841-0.879c-1.83,0-3.445,0.452-4.849,1.364
			c-1.411,0.917-2.509,2.222-3.317,3.924c-0.801,1.701-1.2,3.694-1.2,5.982c0,2.348,0.409,4.328,1.225,5.935
			c0.823,1.606,1.911,2.802,3.267,3.589c1.36,0.791,2.866,1.185,4.494,1.185c1.428,0,2.733-0.349,3.925-1.044
			c1.186-0.694,2.126-1.553,2.823-2.575c0.7-1.021,1.042-2.006,1.042-2.965v-11.87C112.496,14.899,111.312,14.019,110.102,13.428
			 M113.762,35.311v-2.365c0-0.276-0.061-0.418-0.184-0.418c-0.087,0-0.215,0.081-0.372,0.234c-0.865,0.894-1.865,1.71-3.013,2.433
			c-1.146,0.727-2.657,1.089-4.543,1.089c-2.014,0-3.825-0.463-5.45-1.39c-1.618-0.928-2.902-2.31-3.847-4.15
			c-0.941-1.838-1.417-4.086-1.417-6.746c0-2.594,0.472-4.896,1.394-6.908c0.929-2.008,2.244-3.561,3.942-4.656
			c1.697-1.099,3.677-1.648,5.934-1.648c1.513,0,2.779,0.234,3.799,0.694c1.025,0.466,2.029,1.069,3.014,1.812
			c0.247,0.185,0.403,0.277,0.469,0.277c0.112,0,0.181-0.201,0.181-0.602V1.884c0-0.306,0.144-0.463,0.417-0.463h1.066
			c0.247,0,0.378,0.141,0.378,0.418v33.429c0,0.212-0.039,0.361-0.119,0.437c-0.078,0.082-0.227,0.116-0.436,0.116h-0.745
			C113.918,35.82,113.762,35.652,113.762,35.311"/>
		<path fill="#FFFFFF" d="M45.971,11.368c0.075,0.081,0.097,0.176,0.065,0.301l-6.812,23.645c-0.091,0.337-0.357,0.51-0.789,0.51
			h-1.251c-0.463,0-0.741-0.157-0.834-0.465l-6.49-20.213c-0.092-0.249-0.169-0.373-0.228-0.373c-0.067,0-0.141,0.124-0.236,0.373
			L23.37,35.314c-0.092,0.337-0.339,0.51-0.738,0.51h-1.389c-0.467,0-0.746-0.155-0.835-0.465l-7.235-23.646l-0.043-0.135
			c0-0.218,0.138-0.325,0.419-0.325h1.063c0.279,0,0.466,0.124,0.553,0.368l6.448,21.095c0.09,0.31,0.201,0.465,0.325,0.465
			c0.122,0,0.228-0.172,0.322-0.508l6.397-21.145c0.062-0.189,0.215-0.276,0.465-0.276h1.062c0.284,0,0.467,0.124,0.558,0.368
			l6.769,21.095c0.09,0.31,0.183,0.465,0.278,0.465c0.122,0,0.232-0.172,0.325-0.508l6.162-21.096
			c0.095-0.218,0.293-0.325,0.604-0.325h0.789C45.791,11.252,45.892,11.292,45.971,11.368"/>
		<path fill="#FFFFFF" d="M64.316,31.535c1.651-1.992,2.478-4.644,2.478-7.951c0-2.192-0.376-4.118-1.136-5.771
			c-0.753-1.655-1.839-2.943-3.244-3.872c-1.409-0.927-3.036-1.393-4.889-1.393c-1.887,0-3.534,0.46-4.938,1.393
			c-1.404,0.924-2.497,2.225-3.267,3.895c-0.777,1.667-1.162,3.583-1.162,5.748s0.385,4.072,1.162,5.726
			c0.77,1.655,1.867,2.936,3.291,3.847c1.422,0.912,3.074,1.367,4.961,1.367C60.411,34.525,62.657,33.528,64.316,31.535
			 M51.539,34.689c-1.698-1.069-3.011-2.552-3.94-4.452c-0.926-1.902-1.393-4.086-1.393-6.562c0-2.501,0.474-4.724,1.417-6.673
			c0.94-1.947,2.27-3.469,3.982-4.568c1.715-1.094,3.688-1.644,5.915-1.644c2.195,0,4.14,0.542,5.84,1.622
			c1.702,1.081,3.023,2.594,3.964,4.543c0.945,1.943,1.417,4.156,1.417,6.627c0,2.473-0.472,4.674-1.417,6.61
			c-0.941,1.927-2.262,3.429-3.964,4.499c-1.7,1.062-3.659,1.598-5.886,1.598C55.218,36.287,53.237,35.752,51.539,34.689"/>
		<path fill="#FFFFFF" d="M88.701,31.535c1.652-1.992,2.472-4.644,2.472-7.951c0-2.192-0.377-4.118-1.129-5.771
			c-0.758-1.655-1.841-2.943-3.247-3.872c-1.406-0.927-3.036-1.393-4.894-1.393c-1.883,0-3.53,0.46-4.939,1.393
			c-1.403,0.924-2.493,2.225-3.267,3.895c-0.768,1.667-1.16,3.583-1.16,5.748s0.392,4.072,1.16,5.726
			c0.774,1.655,1.867,2.936,3.296,3.847c1.419,0.912,3.07,1.367,4.951,1.367C84.796,34.525,87.048,33.528,88.701,31.535
			 M75.929,34.689c-1.703-1.069-3.012-2.552-3.94-4.452c-0.929-1.902-1.394-4.086-1.394-6.562c0-2.501,0.476-4.724,1.416-6.673
			c0.942-1.947,2.271-3.469,3.982-4.568c1.72-1.094,3.688-1.644,5.912-1.644c2.195,0,4.146,0.542,5.844,1.622
			c1.701,1.081,3.02,2.594,3.964,4.543c0.942,1.943,1.416,4.156,1.416,6.627c0,2.473-0.47,4.674-1.416,6.61
			c-0.944,1.927-2.263,3.429-3.964,4.499c-1.698,1.062-3.663,1.598-5.889,1.598C79.604,36.287,77.621,35.752,75.929,34.689"/>
		<path fill="#FFFFFF" d="M110.102,13.428c-1.207-0.585-2.485-0.879-3.841-0.879c-1.83,0-3.445,0.452-4.849,1.364
			c-1.411,0.917-2.509,2.222-3.317,3.924c-0.801,1.701-1.2,3.694-1.2,5.982c0,2.348,0.409,4.328,1.225,5.935
			c0.823,1.606,1.911,2.802,3.267,3.589c1.36,0.791,2.866,1.185,4.494,1.185c1.428,0,2.733-0.349,3.925-1.044
			c1.186-0.694,2.126-1.553,2.823-2.575c0.7-1.021,1.042-2.006,1.042-2.965v-11.87C112.496,14.899,111.312,14.019,110.102,13.428
			 M113.762,35.311v-2.365c0-0.276-0.061-0.418-0.184-0.418c-0.087,0-0.215,0.081-0.372,0.234c-0.865,0.894-1.865,1.71-3.013,2.433
			c-1.146,0.727-2.657,1.089-4.543,1.089c-2.014,0-3.825-0.463-5.45-1.39c-1.618-0.928-2.902-2.31-3.847-4.15
			c-0.941-1.838-1.417-4.086-1.417-6.746c0-2.594,0.472-4.896,1.394-6.908c0.929-2.008,2.244-3.561,3.942-4.656
			c1.697-1.099,3.677-1.648,5.934-1.648c1.513,0,2.779,0.234,3.799,0.694c1.025,0.466,2.029,1.069,3.014,1.812
			c0.247,0.185,0.403,0.277,0.469,0.277c0.112,0,0.181-0.201,0.181-0.602V1.884c0-0.306,0.144-0.463,0.417-0.463h1.066
			c0.247,0,0.378,0.141,0.378,0.418v33.429c0,0.212-0.039,0.361-0.119,0.437c-0.078,0.082-0.227,0.116-0.436,0.116h-0.745
			C113.918,35.82,113.762,35.652,113.762,35.311"/>
	</g>
</g>
</svg>
